<svg width="34" height="38" viewBox="0 0 34 38" fill="none" xmlns="http://www.w3.org/2000/svg">
<path d="M17.007 10.4651C12.4641 10.4651 8.79986 14.2726 8.79986 18.9929C8.79986 23.7132 12.4641 27.5206 17.007 27.5206C21.5499 27.5206 25.2141 23.7132 25.2141 18.9929C25.2141 14.2726 21.5499 10.4651 17.007 10.4651ZM17.007 24.537C14.0713 24.537 11.6713 22.0507 11.6713 18.9929C11.6713 15.9351 14.0641 13.4487 17.007 13.4487C19.9499 13.4487 22.3427 15.9351 22.3427 18.9929C22.3427 22.0507 19.9427 24.537 17.007 24.537ZM27.4641 10.1163C27.4641 11.2222 26.607 12.1054 25.5499 12.1054C24.4856 12.1054 23.6356 11.2147 23.6356 10.1163C23.6356 9.01787 24.4927 8.12724 25.5499 8.12724C26.607 8.12724 27.4641 9.01787 27.4641 10.1163ZM32.8999 12.1351C32.7784 9.4706 32.1927 7.11045 30.3141 5.16592C28.4427 3.22139 26.1713 2.61279 23.607 2.4792C20.9641 2.32334 13.0427 2.32334 10.3999 2.4792C7.84272 2.60537 5.57129 3.21396 3.69272 5.1585C1.81415 7.10303 1.23558 9.46318 1.10701 12.1276C0.957007 14.8737 0.957007 23.1046 1.10701 25.8507C1.22844 28.5151 1.81415 30.8753 3.69272 32.8198C5.57129 34.7643 7.83558 35.3729 10.3999 35.5065C13.0427 35.6624 20.9641 35.6624 23.607 35.5065C26.1713 35.3804 28.4427 34.7718 30.3141 32.8198C32.1856 30.8753 32.7713 28.5151 32.8999 25.8507C33.0499 23.1046 33.0499 14.8811 32.8999 12.1351ZM29.4856 28.7972C28.9284 30.2518 27.8499 31.3725 26.4427 31.9589C24.3356 32.8272 19.3356 32.6268 17.007 32.6268C14.6784 32.6268 9.67129 32.8198 7.57129 31.9589C6.17129 31.38 5.09272 30.2593 4.52844 28.7972C3.69272 26.6077 3.88558 21.4124 3.88558 18.9929C3.88558 16.5733 3.69986 11.3706 4.52844 9.18857C5.08558 7.73388 6.16415 6.61318 7.57129 6.02685C9.67843 5.15849 14.6784 5.35889 17.007 5.35889C19.3356 5.35889 24.3427 5.16592 26.4427 6.02685C27.8427 6.60576 28.9213 7.72646 29.4856 9.18857C30.3213 11.378 30.1284 16.5733 30.1284 18.9929C30.1284 21.4124 30.3213 26.6151 29.4856 28.7972Z" fill="#F37549"/>
</svg>
